\relax 
\citation{Hartman.P:1960}
\bibstyle{IEEEtran}
\bibdata{DSBMEEG}
\bibcite{Hartman.P:1960}{1}
\@writefile{toc}{\contentsline {section}{\numberline {I}Introduction}{1}}
\@writefile{toc}{\contentsline {section}{\numberline {II}Methods}{1}}
\@writefile{toc}{\contentsline {subsection}{\numberline {\unhbox \voidb@x \hbox {II-A}}Simulated strange attractors}{1}}
\@writefile{toc}{\contentsline {subsection}{\numberline {\unhbox \voidb@x \hbox {II-B}}Dynamical Component Analysis}{1}}
\@writefile{toc}{\contentsline {subsection}{\numberline {\unhbox \voidb@x \hbox {II-C}}Dynamical Systems Based Modeling 2018}{1}}
\@writefile{toc}{\contentsline {section}{\numberline {III}Results}{1}}
\@writefile{toc}{\contentsline {section}{\numberline {IV}Conclusion}{1}}
\@writefile{toc}{\contentsline {section}{References}{1}}
