\relax 
\citation{Liley:2006}
\bibstyle{IEEEtran}
\bibdata{DSBMEEG}
\bibcite{Liley:2006}{1}
\@writefile{toc}{\contentsline {section}{\numberline {I}Introduction}{1}}
\@writefile{toc}{\contentsline {section}{\numberline {II}Methods}{1}}
\@writefile{toc}{\contentsline {subsection}{\numberline {\unhbox \voidb@x \hbox {II-A}}DSBM}{1}}
\@writefile{toc}{\contentsline {subsection}{\numberline {\unhbox \voidb@x \hbox {II-B}}Shilnikov Behavior}{1}}
\@writefile{toc}{\contentsline {subsection}{\numberline {\unhbox \voidb@x \hbox {II-C}}MATLAB}{1}}
\@writefile{toc}{\contentsline {section}{\numberline {III}Results}{1}}
\@writefile{toc}{\contentsline {subsection}{\numberline {\unhbox \voidb@x \hbox {III-A}}Shilnikov Behavior within Seizure}{1}}
\@writefile{toc}{\contentsline {subsection}{\numberline {\unhbox \voidb@x \hbox {III-B}}Shilnikov Behavior outside Seizure}{1}}
\@writefile{toc}{\contentsline {section}{\numberline {IV}Conclusion}{1}}
\@writefile{toc}{\contentsline {section}{References}{1}}
